<?xml version="1.0" encoding="iso-8859-1"?>
<!-- Generator: Adobe Illustrator 19.0.0, SVG Export Plug-In . SVG Version: 6.00 Build 0)  -->
<svg version="1.1" id="Capa_1" xmlns="http://www.w3.org/2000/svg" xmlns:xlink="http://www.w3.org/1999/xlink" x="0px" y="0px"
	 viewBox="0 0 512 512" style="enable-background:new 0 0 512 512;" xml:space="preserve">
<g>
	<g>
		<circle cx="30" cy="392" r="30"/>
	</g>
</g>
<g>
	<g>
		<circle cx="30" cy="121" r="30"/>
	</g>
</g>
<g>
	<g>
		<path d="M256,0c-16.569,0-30,14.431-30,31c0,16.567,13.431,30,30,30c16.569,0,30-13.433,30-30C286,14.431,272.569,0,256,0z"/>
	</g>
</g>
<g>
	<g>
		<path d="M425.417,101.864L311.541,53.489c-7.064,17.39-22.143,30.39-40.541,35.202V106c0,8.291-6.709,15-15,15
			c-8.291,0-15-6.709-15-15V88.691c-18.398-4.812-33.477-17.813-40.541-35.202L86.583,101.864C88.634,107.908,90,114.271,90,121
			c0,5.878-1.113,11.446-2.695,16.816l121.458,51.625c8.015-10.331,19.224-17.93,32.238-21.312V166c0-8.291,6.709-15,15-15
			c8.291,0,15,6.709,15,15v2.13c13.013,3.382,24.223,10.981,32.238,21.312l121.458-51.625C423.113,132.446,422,126.878,422,121
			C422,114.271,423.366,107.908,425.417,101.864z"/>
	</g>
</g>
<g>
	<g>
		<path d="M440.111,163.838L315.09,216.989c0.45,2.961,0.91,5.925,0.91,9.011c0,27.881-19.193,51.163-45,57.87v140.438
			c18.398,4.812,33.477,17.813,40.541,35.202l113.875-48.375C423.366,405.092,422,398.729,422,392c0-33.091,26.909-60,60-60V181
			C465.696,181,450.934,174.423,440.111,163.838z"/>
	</g>
</g>
<g>
	<g>
		<path d="M196,226c0-3.085,0.46-6.05,0.91-9.011L71.889,163.838C61.066,174.423,46.304,181,30,181v151c33.091,0,60,26.909,60,60
			c0,6.729-1.366,13.092-3.417,19.136l113.876,48.375c7.064-17.39,22.143-30.39,40.541-35.202V283.87
			C215.193,277.163,196,253.881,196,226z"/>
	</g>
</g>
<g>
	<g>
		<circle cx="256" cy="482" r="30"/>
	</g>
</g>
<g>
	<g>
		<circle cx="482" cy="392" r="30"/>
	</g>
</g>
<g>
	<g>
		<circle cx="482" cy="121" r="30"/>
	</g>
</g>
<g>
	<g>
		<circle cx="256" cy="226" r="30"/>
	</g>
</g>
<g>
</g>
<g>
</g>
<g>
</g>
<g>
</g>
<g>
</g>
<g>
</g>
<g>
</g>
<g>
</g>
<g>
</g>
<g>
</g>
<g>
</g>
<g>
</g>
<g>
</g>
<g>
</g>
<g>
</g>
</svg>
